Activité 2.1.3 : Le plus grand nombre

Variables
           i : entier;
	   g : entier; {le plus grand parmi ces 20 nombres}
           n : entier; {le nombre introduit par le collègue}
g <= 0  
Debut 
	pour i=1 à 20	
	ecrire ("Entrez le nombre numéro :"n)
	lire (n) 	
		Si n > g alors
		g <= n
		FinSi
	FinPour
	ecrire "Le plus grand de ces nombres est : ", g
Fin
	


